UART/UART_TESTING/dump.vcd
$date
	Thu Nov 17 18:03:27 2022
$end
$version
	ModelSim Version 10.1d
$end
$timescale
	10ps
$end
$scope module UART_TB $end
$var parameter 32 ! c_CLOCK_PERIOD_NS $end
$var parameter 32 " c_CLKS_PER_BIT $end
$var parameter 32 # c_BIT_PERIOD $end
$var reg 1 $ r_Clock $end
$var reg 1 % r_TX_DV $end
$var wire 1 & w_TX_Active $end
$var wire 1 ' w_UART_Line $end
$var wire 1 ( w_TX_Serial $end
$var reg 8 ) r_TX_Byte [7:0] $end
$var wire 1 * w_RX_Byte [7] $end
$var wire 1 + w_RX_Byte [6] $end
$var wire 1 , w_RX_Byte [5] $end
$var wire 1 - w_RX_Byte [4] $end
$var wire 1 . w_RX_Byte [3] $end
$var wire 1 / w_RX_Byte [2] $end
$var wire 1 0 w_RX_Byte [1] $end
$var wire 1 1 w_RX_Byte [0] $end
$var wire 1 2 w_RX_DV $end
$scope module UART_RX_Inst $end
$var parameter 32 3 CLKS_PER_BIT $end
$var parameter 3 4 IDLE $end
$var parameter 3 5 RX_START_BIT $end
$var parameter 3 6 RX_DATA_BITS $end
$var parameter 3 7 RX_STOP_BIT $end
$var parameter 3 8 CLEANUP $end
$var wire 1 9 i_Rst_L $end
$var wire 1 : i_Clock $end
$var wire 1 ' i_RX_Serial $end
$var reg 1 ; o_RX_DV $end
$var reg 8 < o_RX_Byte [7:0] $end
$var reg 8 = r_Clock_Count [7:0] $end
$var reg 3 > r_Bit_Index [2:0] $end
$var reg 3 ? r_SM_Main [2:0] $end
$upscope $end
$scope module UART_TX_Inst $end
$var parameter 32 @ CLKS_PER_BIT $end
$var parameter 3 A IDLE $end
$var parameter 3 B TX_START_BIT $end
$var parameter 3 C TX_DATA_BITS $end
$var parameter 3 D TX_STOP_BIT $end
$var parameter 3 E CLEANUP $end
$var wire 1 F i_Rst_L $end
$var wire 1 G i_Clock $end
$var wire 1 H i_TX_DV $end
$var wire 1 I i_TX_Byte [7] $end
$var wire 1 J i_TX_Byte [6] $end
$var wire 1 K i_TX_Byte [5] $end
$var wire 1 L i_TX_Byte [4] $end
$var wire 1 M i_TX_Byte [3] $end
$var wire 1 N i_TX_Byte [2] $end
$var wire 1 O i_TX_Byte [1] $end
$var wire 1 P i_TX_Byte [0] $end
$var reg 1 Q o_TX_Active $end
$var reg 1 R o_TX_Serial $end
$var reg 1 S o_TX_Done $end
$var reg 3 T r_SM_Main [2:0] $end
$var reg 9 U r_Clock_Count [8:0] $end
$var reg 3 V r_Bit_Index [2:0] $end
$var reg 8 W r_TX_Data [7:0] $end
$upscope $end
$upscope $end
$enddefinitions $end
#0
$dumpvars
0$
0%
b0 )
x;
bx <
bx =
bx >
bx ?
xQ
xR
xS
bx T
bx U
bx V
bx W
b101000 !
b11011001 "
b10000110011000 #
b11011001 3
b0 4
b1 5
b10 6
b11 7
b100 8
b11011001 @
b0 A
b1 B
b10 C
b11 D
b100 E
x&
x'
x(
x1
x0
x/
x.
x-
x,
x+
x*
x2
0P
0O
0N
0M
0L
0K
0J
0I
0H
0G
0:
z9
zF
$end
#2000
1$
1:
1G
0S
b0 T
b0 ?
#4000
0$
0:
0G
#6000
1$
1:
1G
1R
b0 U
b0 V
0;
b0 =
b0 >
1%
b111111 )
1(
1H
1P
1O
1N
1M
1L
1K
1'
02
#8000
0$
0:
0G
#10000
1$
1:
1G
1Q
b111111 W
b1 T
0%
1&
0H
#12000
0$
0:
0G
#14000
1$
1:
1G
0R
b1 U
0(
0'
#16000
0$
0:
0G
#18000
1$
1:
1G
b10 U
b1 ?
#20000
0$
0:
0G
#22000
1$
1:
1G
b11 U
b1 =
#24000
0$
0:
0G
#26000
1$
1:
1G
b100 U
b10 =
#28000
0$
0:
0G
#30000
1$
1:
1G
b101 U
b11 =
#32000
0$
0:
0G
#34000
1$
1:
1G
b110 U
b100 =
#36000
0$
0:
0G
#38000
1$
1:
1G
b111 U
b101 =
#40000
0$
0:
0G
#42000
1$
1:
1G
b1000 U
b110 =
#44000
0$
0:
0G
#46000
1$
1:
1G
b1001 U
b111 =
#48000
0$
0:
0G
#50000
1$
1:
1G
b1010 U
b1000 =
#52000
0$
0:
0G
#54000
1$
1:
1G
b1011 U
b1001 =
#56000
0$
0:
0G
#58000
1$
1:
1G
b1100 U
b1010 =
#60000
0$
0:
0G
#62000
1$
1:
1G
b1101 U
b1011 =
#64000
0$
0:
0G
#66000
1$
1:
1G
b1110 U
b1100 =
#68000
0$
0:
0G
#70000
1$
1:
1G
b1111 U
b1101 =
#72000
0$
0:
0G
#74000
1$
1:
1G
b10000 U
b1110 =
#76000
0$
0:
0G
#78000
1$
1:
1G
b10001 U
b1111 =
#80000
0$
0:
0G
#82000
1$
1:
1G
b10010 U
b10000 =
#84000
0$
0:
0G
#86000
1$
1:
1G
b10011 U
b10001 =
#88000
0$
0:
0G
#90000
1$
1:
1G
b10100 U
b10010 =
#92000
0$
0:
0G
#94000
1$
1:
1G
b10101 U
b10011 =
#96000
0$
0:
0G
#98000
1$
1:
1G
b10110 U
b10100 =
#100000
0$
0:
0G
#102000
1$
1:
1G
b10111 U
b10101 =
#104000
0$
0:
0G
#106000
1$
1:
1G
b11000 U
b10110 =
#108000
0$
0:
0G
#110000
1$
1:
1G
b11001 U
b10111 =
#112000
0$
0:
0G
#114000
1$
1:
1G
b11010 U
b11000 =
#116000
0$
0:
0G
#118000
1$
1:
1G
b11011 U
b11001 =
#120000
0$
0:
0G
#122000
1$
1:
1G
b11100 U
b11010 =
#124000
0$
0:
0G
#126000
1$
1:
1G
b11101 U
b11011 =
#128000
0$
0:
0G
#130000
1$
1:
1G
b11110 U
b11100 =
#132000
0$
0:
0G
#134000
1$
1:
1G
b11111 U
b11101 =
#136000
0$
0:
0G
#138000
1$
1:
1G
b100000 U
b11110 =
#140000
0$
0:
0G
#142000
1$
1:
1G
b100001 U
b11111 =
#144000
0$
0:
0G
#146000
1$
1:
1G
b100010 U
b100000 =
#148000
0$
0:
0G
#150000
1$
1:
1G
b100011 U
b100001 =
#152000
0$
0:
0G
#154000
1$
1:
1G
b100100 U
b100010 =
#156000
0$
0:
0G
#158000
1$
1:
1G
b100101 U
b100011 =
#160000
0$
0:
0G
#162000
1$
1:
1G
b100110 U
b100100 =
#164000
0$
0:
0G
#166000
1$
1:
1G
b100111 U
b100101 =
#168000
0$
0:
0G
#170000
1$
1:
1G
b101000 U
b100110 =
#172000
0$
0:
0G
#174000
1$
1:
1G
b101001 U
b100111 =
#176000
0$
0:
0G
#178000
1$
1:
1G
b101010 U
b101000 =
#180000
0$
0:
0G
#182000
1$
1:
1G
b101011 U
b101001 =
#184000
0$
0:
0G
#186000
1$
1:
1G
b101100 U
b101010 =
#188000
0$
0:
0G
#190000
1$
1:
1G
b101101 U
b101011 =
#192000
0$
0:
0G
#194000
1$
1:
1G
b101110 U
b101100 =
#196000
0$
0:
0G
#198000
1$
1:
1G
b101111 U
b101101 =
#200000
0$
0:
0G
#202000
1$
1:
1G
b110000 U
b101110 =
#204000
0$
0:
0G
#206000
1$
1:
1G
b110001 U
b101111 =
#208000
0$
0:
0G
#210000
1$
1:
1G
b110010 U
b110000 =
#212000
0$
0:
0G
#214000
1$
1:
1G
b110011 U
b110001 =
#216000
0$
0:
0G
#218000
1$
1:
1G
b110100 U
b110010 =
#220000
0$
0:
0G
#222000
1$
1:
1G
b110101 U
b110011 =
#224000
0$
0:
0G
#226000
1$
1:
1G
b110110 U
b110100 =
#228000
0$
0:
0G
#230000
1$
1:
1G
b110111 U
b110101 =
#232000
0$
0:
0G
#234000
1$
1:
1G
b111000 U
b110110 =
#236000
0$
0:
0G
#238000
1$
1:
1G
b111001 U
b110111 =
#240000
0$
0:
0G
#242000
1$
1:
1G
b111010 U
b111000 =
#244000
0$
0:
0G
#246000
1$
1:
1G
b111011 U
b111001 =
#248000
0$
0:
0G
#250000
1$
1:
1G
b111100 U
b111010 =
#252000
0$
0:
0G
#254000
1$
1:
1G
b111101 U
b111011 =
#256000
0$
0:
0G
#258000
1$
1:
1G
b111110 U
b111100 =
#260000
0$
0:
0G
#262000
1$
1:
1G
b111111 U
b111101 =
#264000
0$
0:
0G
#266000
1$
1:
1G
b1000000 U
b111110 =
#268000
0$
0:
0G
#270000
1$
1:
1G
b1000001 U
b111111 =
#272000
0$
0:
0G
#274000
1$
1:
1G
b1000010 U
b1000000 =
#276000
0$
0:
0G
#278000
1$
1:
1G
b1000011 U
b1000001 =
#280000
0$
0:
0G
#282000
1$
1:
1G
b1000100 U
b1000010 =
#284000
0$
0:
0G
#286000
1$
1:
1G
b1000101 U
b1000011 =
#288000
0$
0:
0G
#290000
1$
1:
1G
b1000110 U
b1000100 =
#292000
0$
0:
0G
#294000
1$
1:
1G
b1000111 U
b1000101 =
#296000
0$
0:
0G
#298000
1$
1:
1G
b1001000 U
b1000110 =
#300000
0$
0:
0G
#302000
1$
1:
1G
b1001001 U
b1000111 =
#304000
0$
0:
0G
#306000
1$
1:
1G
b1001010 U
b1001000 =
#308000
0$
0:
0G
#310000
1$
1:
1G
b1001011 U
b1001001 =
#312000
0$
0:
0G
#314000
1$
1:
1G
b1001100 U
b1001010 =
#316000
0$
0:
0G
#318000
1$
1:
1G
b1001101 U
b1001011 =
#320000
0$
0:
0G
#322000
1$
1:
1G
b1001110 U
b1001100 =
#324000
0$
0:
0G
#326000
1$
1:
1G
b1001111 U
b1001101 =
#328000
0$
0:
0G
#330000
1$
1:
1G
b1010000 U
b1001110 =
#332000
0$
0:
0G
#334000
1$
1:
1G
b1010001 U
b1001111 =
#336000
0$
0:
0G
#338000
1$
1:
1G
b1010010 U
b1010000 =
#340000
0$
0:
0G
#342000
1$
1:
1G
b1010011 U
b1010001 =
#344000
0$
0:
0G
#346000
1$
1:
1G
b1010100 U
b1010010 =
#348000
0$
0:
0G
#350000
1$
1:
1G
b1010101 U
b1010011 =
#352000
0$
0:
0G
#354000
1$
1:
1G
b1010110 U
b1010100 =
#356000
0$
0:
0G
#358000
1$
1:
1G
b1010111 U
b1010101 =
#360000
0$
0:
0G
#362000
1$
1:
1G
b1011000 U
b1010110 =
#364000
0$
0:
0G
#366000
1$
1:
1G
b1011001 U
b1010111 =
#368000
0$
0:
0G
#370000
1$
1:
1G
b1011010 U
b1011000 =
#372000
0$
0:
0G
#374000
1$
1:
1G
b1011011 U
b1011001 =
#376000
0$
0:
0G
#378000
1$
1:
1G
b1011100 U
b1011010 =
#380000
0$
0:
0G
#382000
1$
1:
1G
b1011101 U
b1011011 =
#384000
0$
0:
0G
#386000
1$
1:
1G
b1011110 U
b1011100 =
#388000
0$
0:
0G
#390000
1$
1:
1G
b1011111 U
b1011101 =
#392000
0$
0:
0G
#394000
1$
1:
1G
b1100000 U
b1011110 =
#396000
0$
0:
0G
#398000
1$
1:
1G
b1100001 U
b1011111 =
#400000
0$
0:
0G
#402000
1$
1:
1G
b1100010 U
b1100000 =
#404000
0$
0:
0G
#406000
1$
1:
1G
b1100011 U
b1100001 =
#408000
0$
0:
0G
#410000
1$
1:
1G
b1100100 U
b1100010 =
#412000
0$
0:
0G
#414000
1$
1:
1G
b1100101 U
b1100011 =
#416000
0$
0:
0G
#418000
1$
1:
1G
b1100110 U
b1100100 =
#420000
0$
0:
0G
#422000
1$
1:
1G
b1100111 U
b1100101 =
#424000
0$
0:
0G
#426000
1$
1:
1G
b1101000 U
b1100110 =
#428000
0$
0:
0G
#430000
1$
1:
1G
b1101001 U
b1100111 =
#432000
0$
0:
0G
#434000
1$
1:
1G
b1101010 U
b1101000 =
#436000
0$
0:
0G
#438000
1$
1:
1G
b1101011 U
b1101001 =
#440000
0$
0:
0G
#442000
1$
1:
1G
b1101100 U
b1101010 =
#444000
0$
0:
0G
#446000
1$
1:
1G
b1101101 U
b1101011 =
#448000
0$
0:
0G
#450000
1$
1:
1G
b1101110 U
b1101100 =
#452000
0$
0:
0G
#454000
1$
1:
1G
b1101111 U
b0 =
b10 ?
#456000
0$
0:
0G
#458000
1$
1:
1G
b1110000 U
b1 =
#460000
0$
0:
0G
#462000
1$
1:
1G
b1110001 U
b10 =
#464000
0$
0:
0G
#466000
1$
1:
1G
b1110010 U
b11 =
#468000
0$
0:
0G
#470000
1$
1:
1G
b1110011 U
b100 =
#472000
0$
0:
0G
#474000
1$
1:
1G
b1110100 U
b101 =
#476000
0$
0:
0G
#478000
1$
1:
1G
b1110101 U
b110 =
#480000
0$
0:
0G
#482000
1$
1:
1G
b1110110 U
b111 =
#484000
0$
0:
0G
#486000
1$
1:
1G
b1110111 U
b1000 =
#488000
0$
0:
0G
#490000
1$
1:
1G
b1111000 U
b1001 =
#492000
0$
0:
0G
#494000
1$
1:
1G
b1111001 U
b1010 =
#496000
0$
0:
0G
#498000
1$
1:
1G
b1111010 U
b1011 =
#500000
0$
0:
0G
#502000
1$
1:
1G
b1111011 U
b1100 =
#504000
0$
0:
0G
#506000
1$
1:
1G
b1111100 U
b1101 =
#508000
0$
0:
0G
#510000
1$
1:
1G
b1111101 U
b1110 =
#512000
0$
0:
0G
#514000
1$
1:
1G
b1111110 U
b1111 =
#516000
0$
0:
0G
#518000
1$
1:
1G
b1111111 U
b10000 =
#520000
0$
0:
0G
#522000
1$
1:
1G
b10000000 U
b10001 =
#524000
0$
0:
0G
#526000
1$
1:
1G
b10000001 U
b10010 =
#528000
0$
0:
0G
#530000
1$
1:
1G
b10000010 U
b10011 =
#532000
0$
0:
0G
#534000
1$
1:
1G
b10000011 U
b10100 =
#536000
0$
0:
0G
#538000
1$
1:
1G
b10000100 U
b10101 =
#540000
0$
0:
0G
#542000
1$
1:
1G
b10000101 U
b10110 =
#544000
0$
0:
0G
#546000
1$
1:
1G
b10000110 U
b10111 =
#548000
0$
0:
0G
#550000
1$
1:
1G
b10000111 U
b11000 =
#552000
0$
0:
0G
#554000
1$
1:
1G
b10001000 U
b11001 =
#556000
0$
0:
0G
#558000
1$
1:
1G
b10001001 U
b11010 =
#560000
0$
0:
0G
#562000
1$
1:
1G
b10001010 U
b11011 =
#564000
0$
0:
0G
#566000
1$
1:
1G
b10001011 U
b11100 =
#568000
0$
0:
0G
#570000
1$
1:
1G
b10001100 U
b11101 =
#572000
0$
0:
0G
#574000
1$
1:
1G
b10001101 U
b11110 =
#576000
0$
0:
0G
#578000
1$
1:
1G
b10001110 U
b11111 =
#580000
0$
0:
0G
#582000
1$
1:
1G
b10001111 U
b100000 =
#584000
0$
0:
0G
#586000
1$
1:
1G
b10010000 U
b100001 =
#588000
0$
0:
0G
#590000
1$
1:
1G
b10010001 U
b100010 =
#592000
0$
0:
0G
#594000
1$
1:
1G
b10010010 U
b100011 =
#596000
0$
0:
0G
#598000
1$
1:
1G
b10010011 U
b100100 =
#600000
0$
0:
0G
#602000
1$
1:
1G
b10010100 U
b100101 =
#604000
0$
0:
0G
#606000
1$
1:
1G
b10010101 U
b100110 =
#608000
0$
0:
0G
#610000
1$
1:
1G
b10010110 U
b100111 =
#612000
0$
0:
0G
#614000
1$
1:
1G
b10010111 U
b101000 =
#616000
0$
0:
0G
#618000
1$
1:
1G
b10011000 U
b101001 =
#620000
0$
0:
0G
#622000
1$
1:
1G
b10011001 U
b101010 =
#624000
0$
0:
0G
#626000
1$
1:
1G
b10011010 U
b101011 =
#628000
0$
0:
0G
#630000
1$
1:
1G
b10011011 U
b101100 =
#632000
0$
0:
0G
#634000
1$
1:
1G
b10011100 U
b101101 =
#636000
0$
0:
0G
#638000
1$
1:
1G
b10011101 U
b101110 =
#640000
0$
0:
0G
#642000
1$
1:
1G
b10011110 U
b101111 =
#644000
0$
0:
0G
#646000
1$
1:
1G
b10011111 U
b110000 =
#648000
0$
0:
0G
#650000
1$
1:
1G
b10100000 U
b110001 =
#652000
0$
0:
0G
#654000
1$
1:
1G
b10100001 U
b110010 =
#656000
0$
0:
0G
#658000
1$
1:
1G
b10100010 U
b110011 =
#660000
0$
0:
0G
#662000
1$
1:
1G
b10100011 U
b110100 =
#664000
0$
0:
0G
#666000
1$
1:
1G
b10100100 U
b110101 =
#668000
0$
0:
0G
#670000
1$
1:
1G
b10100101 U
b110110 =
#672000
0$
0:
0G
#674000
1$
1:
1G
b10100110 U
b110111 =
#676000
0$
0:
0G
#678000
1$
1:
1G
b10100111 U
b111000 =
#680000
0$
0:
0G
#682000
1$
1:
1G
b10101000 U
b111001 =
#684000
0$
0:
0G
#686000
1$
1:
1G
b10101001 U
b111010 =
#688000
0$
0:
0G
#690000
1$
1:
1G
b10101010 U
b111011 =
#692000
0$
0:
0G
#694000
1$
1:
1G
b10101011 U
b111100 =
#696000
0$
0:
0G
#698000
1$
1:
1G
b10101100 U
b111101 =
#700000
0$
0:
0G
#702000
1$
1:
1G
b10101101 U
b111110 =
#704000
0$
0:
0G
#706000
1$
1:
1G
b10101110 U
b111111 =
#708000
0$
0:
0G
#710000
1$
1:
1G
b10101111 U
b1000000 =
#712000
0$
0:
0G
#714000
1$
1:
1G
b10110000 U
b1000001 =
#716000
0$
0:
0G
#718000
1$
1:
1G
b10110001 U
b1000010 =
#720000
0$
0:
0G
#722000
1$
1:
1G
b10110010 U
b1000011 =
#724000
0$
0:
0G
#726000
1$
1:
1G
b10110011 U
b1000100 =
#728000
0$
0:
0G
#730000
1$
1:
1G
b10110100 U
b1000101 =
#732000
0$
0:
0G
#734000
1$
1:
1G
b10110101 U
b1000110 =
#736000
0$
0:
0G
#738000
1$
1:
1G
b10110110 U
b1000111 =
#740000
0$
0:
0G
#742000
1$
1:
1G
b10110111 U
b1001000 =
#744000
0$
0:
0G
#746000
1$
1:
1G
b10111000 U
b1001001 =
#748000
0$
0:
0G
#750000
1$
1:
1G
b10111001 U
b1001010 =
#752000
0$
0:
0G
#754000
1$
1:
1G
b10111010 U
b1001011 =
#756000
0$
0:
0G
#758000
1$
1:
1G
b10111011 U
b1001100 =
#760000
0$
0:
0G
#762000
1$
1:
1G
b10111100 U
b1001101 =
#764000
0$
0:
0G
#766000
1$
1:
1G
b10111101 U
b1001110 =
#768000
0$
0:
0G
#770000
1$
1:
1G
b10111110 U
b1001111 =
#772000
0$
0:
0G
#774000
1$
1:
1G
b10111111 U
b1010000 =
#776000
0$
0:
0G
#778000
1$
1:
1G
b11000000 U
b1010001 =
#780000
0$
0:
0G
#782000
1$
1:
1G
b11000001 U
b1010010 =
#784000
0$
0:
0G
#786000
1$
1:
1G
b11000010 U
b1010011 =
#788000
0$
0:
0G
#790000
1$
1:
1G
b11000011 U
b1010100 =
#792000
0$
0:
0G
#794000
1$
1:
1G
b11000100 U
b1010101 =
#796000
0$
0:
0G
#798000
1$
1:
1G
b11000101 U
b1010110 =
#800000
0$
0:
0G
#802000
1$
1:
1G
b11000110 U
b1010111 =
#804000
0$
0:
0G
#806000
1$
1:
1G
b11000111 U
b1011000 =
#808000
0$
0:
0G
#810000
1$
1:
1G
b11001000 U
b1011001 =
#812000
0$
0:
0G
#814000
1$
1:
1G
b11001001 U
b1011010 =
#816000
0$
0:
0G
#818000
1$
1:
1G
b11001010 U
b1011011 =
#820000
0$
0:
0G
#822000
1$
1:
1G
b11001011 U
b1011100 =
#824000
0$
0:
0G
#826000
1$
1:
1G
b11001100 U
b1011101 =
#828000
0$
0:
0G
#830000
1$
1:
1G
b11001101 U
b1011110 =
#832000
0$
0:
0G
#834000
1$
1:
1G
b11001110 U
b1011111 =
#836000
0$
0:
0G
#838000
1$
1:
1G
b11001111 U
b1100000 =
#840000
0$
0:
0G
#842000
1$
1:
1G
b11010000 U
b1100001 =
#844000
0$
0:
0G
#846000
1$
1:
1G
b11010001 U
b1100010 =
#848000
0$
0:
0G
#850000
1$
1:
1G
b11010010 U
b1100011 =
#852000
0$
0:
0G
#854000
1$
1:
1G
b11010011 U
b1100100 =
#856000
0$
0:
0G
#858000
1$
1:
1G
b11010100 U
b1100101 =
#860000
0$
0:
0G
#862000
1$
1:
1G
b11010101 U
b1100110 =
#864000
0$
0:
0G
#866000
1$
1:
1G
b11010110 U
b1100111 =
#868000
0$
0:
0G
#870000
1$
1:
1G
b11010111 U
b1101000 =
#872000
0$
0:
0G
#874000
1$
1:
1G
b11011000 U
b1101001 =
#876000
0$
0:
0G
#878000
1$
1:
1G
b0 U
b10 T
b1101010 =
#880000
0$
0:
0G
#882000
1$
1:
1G
1R
b1 U
b1101011 =
1(
1'
#884000
0$
0:
0G
#886000
1$
1:
1G
b10 U
b1101100 =
#888000
0$
0:
0G
#890000
1$
1:
1G
b11 U
b1101101 =
#892000
0$
0:
0G
#894000
1$
1:
1G
b100 U
b1101110 =
#896000
0$
0:
0G
#898000
1$
1:
1G
b101 U
b1101111 =
#900000
0$
0:
0G
#902000
1$
1:
1G
b110 U
b1110000 =
#904000
0$
0:
0G
#906000
1$
1:
1G
b111 U
b1110001 =
#908000
0$
0:
0G
#910000
1$
1:
1G
b1000 U
b1110010 =
#912000
0$
0:
0G
#914000
1$
1:
1G
b1001 U
b1110011 =
#916000
0$
0:
0G
#918000
1$
1:
1G
b1010 U
b1110100 =
#920000
0$
0:
0G
#922000
1$
1:
1G
b1011 U
b1110101 =
#924000
0$
0:
0G
#926000
1$
1:
1G
b1100 U
b1110110 =
#928000
0$
0:
0G
#930000
1$
1:
1G
b1101 U
b1110111 =
#932000
0$
0:
0G
#934000
1$
1:
1G
b1110 U
b1111000 =
#936000
0$
0:
0G
#938000
1$
1:
1G
b1111 U
b1111001 =
#940000
0$
0:
0G
#942000
1$
1:
1G
b10000 U
b1111010 =
#944000
0$
0:
0G
#946000
1$
1:
1G
b10001 U
b1111011 =
#948000
0$
0:
0G
#950000
1$
1:
1G
b10010 U
b1111100 =
#952000
0$
0:
0G
#954000
1$
1:
1G
b10011 U
b1111101 =
#956000
0$
0:
0G
#958000
1$
1:
1G
b10100 U
b1111110 =
#960000
0$
0:
0G
#962000
1$
1:
1G
b10101 U
b1111111 =
#964000
0$
0:
0G
#966000
1$
1:
1G
b10110 U
b10000000 =
#968000
0$
0:
0G
#970000
1$
1:
1G
b10111 U
b10000001 =
#972000
0$
0:
0G
#974000
1$
1:
1G
b11000 U
b10000010 =
#976000
0$
0:
0G
#978000
1$
1:
1G
b11001 U
b10000011 =
#980000
0$
0:
0G
#982000
1$
1:
1G
b11010 U
b10000100 =
#984000
0$
0:
0G
#986000
1$
1:
1G
b11011 U
b10000101 =
#988000
0$
0:
0G
#990000
1$
1:
1G
b11100 U
b10000110 =
#992000
0$
0:
0G
#994000
1$
1:
1G
b11101 U
b10000111 =
#996000
0$
0:
0G
#998000
1$
1:
1G
b11110 U
b10001000 =
#1000000
0$
0:
0G
#1002000
1$
1:
1G
b11111 U
b10001001 =
#1004000
0$
0:
0G
#1006000
1$
1:
1G
b100000 U
b10001010 =
#1008000
0$
0:
0G
#1010000
1$
1:
1G
b100001 U
b10001011 =
#1012000
0$
0:
0G
#1014000
1$
1:
1G
b100010 U
b10001100 =
#1016000
0$
0:
0G
#1018000
1$
1:
1G
b100011 U
b10001101 =
#1020000
0$
0:
0G
#1022000
1$
1:
1G
b100100 U
b10001110 =
#1024000
0$
0:
0G
#1026000
1$
1:
1G
b100101 U
b10001111 =
#1028000
0$
0:
0G
#1030000
1$
1:
1G
b100110 U
b10010000 =
#1032000
0$
0:
0G
#1034000
1$
1:
1G
b100111 U
b10010001 =
#1036000
0$
0:
0G
#1038000
1$
1:
1G
b101000 U
b10010010 =
#1040000
0$
0:
0G
#1042000
1$
1:
1G
b101001 U
b10010011 =
#1044000
0$
0:
0G
#1046000
1$
1:
1G
b101010 U
b10010100 =
#1048000
0$
0:
0G
#1050000
1$
1:
1G
b101011 U
b10010101 =
#1052000
0$
0:
0G
#1054000
1$
1:
1G
b101100 U
b10010110 =
#1056000
0$
0:
0G
#1058000
1$
1:
1G
b101101 U
b10010111 =
#1060000
0$
0:
0G
#1062000
1$
1:
1G
b101110 U
b10011000 =
#1064000
0$
0:
0G
#1066000
1$
1:
1G
b101111 U
b10011001 =
#1068000
0$
0:
0G
#1070000
1$
1:
1G
b110000 U
b10011010 =
#1072000
0$
0:
0G
#1074000
1$
1:
1G
b110001 U
b10011011 =
#1076000
0$
0:
0G
#1078000
1$
1:
1G
b110010 U
b10011100 =
#1080000
0$
0:
0G
#1082000
1$
1:
1G
b110011 U
b10011101 =
#1084000
0$
0:
0G
#1086000
1$
1:
1G
b110100 U
b10011110 =
#1088000
0$
0:
0G
#1090000
1$
1:
1G
b110101 U
b10011111 =
#1092000
0$
0:
0G
#1094000
1$
1:
1G
b110110 U
b10100000 =
#1096000
0$
0:
0G
#1098000
1$
1:
1G
b110111 U
b10100001 =
#1100000
0$
0:
0G
#1102000
1$
1:
1G
b111000 U
b10100010 =
#1104000
0$
0:
0G
#1106000
1$
1:
1G
b111001 U
b10100011 =
#1108000
0$
0:
0G
#1110000
1$
1:
1G
b111010 U
b10100100 =
#1112000
0$
0:
0G
#1114000
1$
1:
1G
b111011 U
b10100101 =
#1116000
0$
0:
0G
#1118000
1$
1:
1G
b111100 U
b10100110 =
#1120000
0$
0:
0G
#1122000
1$
1:
1G
b111101 U
b10100111 =
#1124000
0$
0:
0G
#1126000
1$
1:
1G
b111110 U
b10101000 =
#1128000
0$
0:
0G
#1130000
1$
1:
1G
b111111 U
b10101001 =
#1132000
0$
0:
0G
#1134000
1$
1:
1G
b1000000 U
b10101010 =
#1136000
0$
0:
0G
#1138000
1$
1:
1G
b1000001 U
b10101011 =
#1140000
0$
0:
0G
#1142000
1$
1:
1G
b1000010 U
b10101100 =
#1144000
0$
0:
0G
#1146000
1$
1:
1G
b1000011 U
b10101101 =
#1148000
0$
0:
0G
#1150000
1$
1:
1G
b1000100 U
b10101110 =
#1152000
0$
0:
0G
#1154000
1$
1:
1G
b1000101 U
b10101111 =
#1156000
0$
0:
0G
#1158000
1$
1:
1G
b1000110 U
b10110000 =
#1160000
0$
0:
0G
#1162000
1$
1:
1G
b1000111 U
b10110001 =
#1164000
0$
0:
0G
#1166000
1$
1:
1G
b1001000 U
b10110010 =
#1168000
0$
0:
0G
#1170000
1$
1:
1G
b1001001 U
b10110011 =
#1172000
0$
0:
0G
#1174000
1$
1:
1G
b1001010 U
b10110100 =
#1176000
0$
0:
0G
#1178000
1$
1:
1G
b1001011 U
b10110101 =
#1180000
0$
0:
0G
#1182000
1$
1:
1G
b1001100 U
b10110110 =
#1184000
0$
0:
0G
#1186000
1$
1:
1G
b1001101 U
b10110111 =
#1188000
0$
0:
0G
#1190000
1$
1:
1G
b1001110 U
b10111000 =
#1192000
0$
0:
0G
#1194000
1$
1:
1G
b1001111 U
b10111001 =
#1196000
0$
0:
0G
#1198000
1$
1:
1G
b1010000 U
b10111010 =
#1200000
0$
0:
0G
#1202000
1$
1:
1G
b1010001 U
b10111011 =
#1204000
0$
0:
0G
#1206000
1$
1:
1G
b1010010 U
b10111100 =
#1208000
0$
0:
0G
#1210000
1$
1:
1G
b1010011 U
b10111101 =
#1212000
0$
0:
0G
#1214000
1$
1:
1G
b1010100 U
b10111110 =
#1216000
0$
0:
0G
#1218000
1$
1:
1G
b1010101 U
b10111111 =
#1220000
0$
0:
0G
#1222000
1$
1:
1G
b1010110 U
b11000000 =
#1224000
0$
0:
0G
#1226000
1$
1:
1G
b1010111 U
b11000001 =
#1228000
0$
0:
0G
#1230000
1$
1:
1G
b1011000 U
b11000010 =
#1232000
0$
0:
0G
#1234000
1$
1:
1G
b1011001 U
b11000011 =
#1236000
0$
0:
0G
#1238000
1$
1:
1G
b1011010 U
b11000100 =
#1240000
0$
0:
0G
#1242000
1$
1:
1G
b1011011 U
b11000101 =
#1244000
0$
0:
0G
#1246000
1$
1:
1G
b1011100 U
b11000110 =
#1248000
0$
0:
0G
#1250000
1$
1:
1G
b1011101 U
b11000111 =
#1252000
0$
0:
0G
#1254000
1$
1:
1G
b1011110 U
b11001000 =
#1256000
0$
0:
0G
#1258000
1$
1:
1G
b1011111 U
b11001001 =
#1260000
0$
0:
0G
#1262000
1$
1:
1G
b1100000 U
b11001010 =
#1264000
0$
0:
0G
#1266000
1$
1:
1G
b1100001 U
b11001011 =
#1268000
0$
0:
0G
#1270000
1$
1:
1G
b1100010 U
b11001100 =
#1272000
0$
0:
0G
#1274000
1$
1:
1G
b1100011 U
b11001101 =
#1276000
0$
0:
0G
#1278000
1$
1:
1G
b1100100 U
b11001110 =
#1280000
0$
0:
0G
#1282000
1$
1:
1G
b1100101 U
b11001111 =
#1284000
0$
0:
0G
#1286000
1$
1:
1G
b1100110 U
b11010000 =
#1288000
0$
0:
0G
#1290000
1$
1:
1G
b1100111 U
b11010001 =
#1292000
0$
0:
0G
#1294000
1$
1:
1G
b1101000 U
b11010010 =
#1296000
0$
0:
0G
#1298000
1$
1:
1G
b1101001 U
b11010011 =
#1300000
0$
0:
0G
#1302000
1$
1:
1G
b1101010 U
b11010100 =
#1304000
0$
0:
0G
#1306000
1$
1:
1G
b1101011 U
b11010101 =
#1308000
0$
0:
0G
#1310000
1$
1:
1G
b1101100 U
b11010110 =
#1312000
0$
0:
0G
#1314000
1$
1:
1G
b1101101 U
b11010111 =
#1316000
0$
0:
0G
#1318000
1$
1:
1G
b1101110 U
b11011000 =
#1320000
0$
0:
0G
#1322000
1$
1:
1G
b1101111 U
b0 =
bx1 <
b1 >
11
#1324000
0$
0:
0G
#1326000
1$
1:
1G
b1110000 U
b1 =
#1328000
0$
0:
0G
#1330000
1$
1:
1G
b1110001 U
b10 =
#1332000
0$
0:
0G
#1334000
1$
1:
1G
b1110010 U
b11 =
#1336000
0$
0:
0G
#1338000
1$
1:
1G
b1110011 U
b100 =
#1340000
0$
0:
0G
#1342000
1$
1:
1G
b1110100 U
b101 =
#1344000
0$
0:
0G
