UART/UART_NEW/work/waves-rx.vcd
$date
	Sat Nov 26 14:25:19 2022
$end
$version
	ModelSim Version 10.1d
$end
$timescale
	1ns
$end
$scope module rx_tb $end
$var parameter 32 ! BIT_RATE $end
$var parameter 32 " BIT_P $end
$var parameter 32 # CLK_HZ $end
$var parameter 32 $ CLK_P $end
$var reg 1 % clk $end
$var reg 1 & resetn $end
$var reg 1 ' uart_rxd $end
$var reg 1 ( uart_rx_en $end
$var wire 1 ) uart_rx_break $end
$var wire 1 * uart_rx_valid $end
$var wire 1 + uart_rx_data [7] $end
$var wire 1 , uart_rx_data [6] $end
$var wire 1 - uart_rx_data [5] $end
$var wire 1 . uart_rx_data [4] $end
$var wire 1 / uart_rx_data [3] $end
$var wire 1 0 uart_rx_data [2] $end
$var wire 1 1 uart_rx_data [1] $end
$var wire 1 2 uart_rx_data [0] $end
$var integer 32 3 passes $end
$var integer 32 4 fails $end
$var reg 8 5 to_send [7:0] $end
$scope task send_byte $end
$var reg 8 6 to_send [7:0] $end
$var integer 32 7 i $end
$upscope $end
$scope task check_byte $end
$var reg 8 8 expected_value [7:0] $end
$upscope $end
$scope module i_uart_rx $end
$var parameter 32 9 BIT_RATE $end
$var parameter 32 : BIT_P $end
$var parameter 32 ; CLK_HZ $end
$var parameter 32 < CLK_P $end
$var parameter 32 = PAYLOAD_BITS $end
$var parameter 32 > STOP_BITS $end
$var parameter 32 ? CYCLES_PER_BIT $end
$var parameter 32 @ COUNT_REG_LEN $end
$var parameter 32 A FSM_IDLE $end
$var parameter 32 B FSM_START $end
$var parameter 32 C FSM_RECV $end
$var parameter 32 D FSM_STOP $end
$var wire 1 E clk $end
$var wire 1 F resetn $end
$var wire 1 G uart_rxd $end
$var wire 1 H uart_rx_en $end
$var wire 1 ) uart_rx_break $end
$var wire 1 * uart_rx_valid $end
$var reg 8 I uart_rx_data [7:0] $end
$var reg 1 J rxd_reg $end
$var reg 1 K rxd_reg_0 $end
$var reg 8 L recieved_data [7:0] $end
$var reg 10 M cycle_counter [9:0] $end
$var reg 4 N bit_counter [3:0] $end
$var reg 1 O bit_sample $end
$var reg 3 P fsm_state [2:0] $end
$var reg 3 Q n_fsm_state [2:0] $end
$var wire 1 R next_bit $end
$var wire 1 S payload_done $end
$var integer 32 T i $end
$scope begin p_n_fsm_state $end
$upscope $end
$scope begin p_recieved_data $end
$upscope $end
$scope begin p_bit_counter $end
$upscope $end
$scope begin p_bit_sample $end
$upscope $end
$scope begin p_cycle_counter $end
$upscope $end
$scope begin p_fsm_state $end
$upscope $end
$scope begin p_rxd_reg $end
$upscope $end
$upscope $end
$upscope $end
$enddefinitions $end
#40
$dumpvars
0%
1&
1'
1(
bx 6
bx 8
bx 5
b0 I
1J
1K
b0 L
b0 M
b0 N
0O
b0 P
b0 Q
b11100001000000000 !
b10000111101000 "
b10111110101111000010000000 #
b10100 $
b11100001000000000 9
b10000111101000 :
b10111110101111000010000000 ;
b10100 <
b1000 =
b1 >
b110110010 ?
b1010 @
b0 A
b1 B
b10 C
b11 D
bx 7
b0 3
b0 4
b0 T
0)
0*
02
01
00
0/
0.
0-
0,
0+
0R
0S
1H
1G
1F
0E
$end
#50
1%
1E
#60
0%
0E
#70
1%
1E
#80
0%
0E
#90
1%
1E
#100
0%
0E
#110
1%
1E
#120
0%
0E
#130
1%
1E
#140
0%
0E
#150
1%
1E
#160
0%
0E
#170
1%
1E
#180
0%
0E
#190
1%
1E
#200
0%
0E
#210
1%
1E
#220
0%
0E
#230
1%
1E
#240
0%
0E
#250
1%
1E
#260
0%
0E
#270
1%
1E
#280
0%
0E
#290
1%
1E
#300
0%
0E
#310
1%
1E
#320
0%
0E
#330
1%
1E
#340
0%
0E
#350
1%
1E
#360
0%
0E
#370
1%
1E
#380
0%
0E
#390
1%
1E
#400
0%
0E
#410
1%
1E
#420
0%
0E
#430
1%
1E
#440
0%
0E
#450
1%
1E
#460
0%
0E
#470
1%
1E
#480
0%
0E
#490
1%
1E
#500
0%
0E
#510
1%
1E
#520
0%
0E
#530
1%
1E
#540
0%
0E
#550
1%
1E
#560
0%
0E
#570
1%
1E
#580
0%
0E
#590
1%
1E
#600
0%
0E
#610
1%
1E
#620
0%
0E
#630
1%
1E
#640
0%
0E
#650
1%
1E
#660
0%
0E
#670
1%
1E
#680
0%
0E
#690
1%
1E
#700
0%
0E
#710
1%
1E
#720
0%
0E
#730
1%
1E
#740
0%
0E
#750
1%
1E
#760
0%
0E
#770
1%
1E
#780
0%
0E
#790
1%
1E
#800
0%
0E
#810
1%
1E
#820
0%
0E
#830
1%
1E
#840
0%
0E
#850
1%
1E
#860
0%
0E
#870
1%
1E
#880
0%
0E
#890
1%
1E
#900
0%
0E
#910
1%
1E
#920
0%
0E
#930
1%
1E
#940
0%
0E
#950
1%
1E
#960
0%
0E
#970
1%
1E
#980
0%
0E
#990
1%
1E
#1000
0%
0E
#1010
1%
1E
#1020
0%
0E
#1030
1%
1E
#1040
b100100 5
b100100 6
0%
0E
#1050
1%
1E
#1060
0%
0E
#1070
1%
1E
#1080
0%
0E
#1090
1%
1E
#1100
0%
0E
#1110
1%
1E
#1120
0%
0E
#1130
1%
1E
#1140
0%
0E
#1150
1%
1E
#1160
0%
0E
#1170
1%
1E
#1180
0%
0E
#1190
1%
1E
#1200
0%
0E
#1210
1%
1E
#1220
0%
0E
#1230
1%
1E
#1240
0%
0E
#1250
1%
1E
#1260
0%
0E
#1270
1%
1E
#1280
0%
0E
#1290
1%
1E
#1300
0%
0E
#1310
1%
1E
#1320
0%
0E
#1330
1%
1E
#1340
0%
0E
#1350
1%
1E
#1360
0%
0E
#1370
1%
1E
#1380
0%
0E
#1390
1%
1E
#1400
0%
0E
#1410
1%
1E
#1420
0%
0E
#1430
1%
1E
#1440
0%
0E
#1450
1%
1E
#1460
0%
0E
#1470
1%
1E
#1480
0%
0E
#1490
1%
1E
#1500
0%
0E
#1510
1%
1E
#1520
0%
0E
#1530
1%
1E
#1540
0%
0E
#1550
1%
1E
#1560
0%
0E
#1570
1%
1E
#1580
0%
0E
#1590
1%
1E
#1600
0%
0E
#1610
1%
1E
#1620
0%
0E
#1630
1%
1E
#1640
0%
0E
#1650
1%
1E
#1660
0%
0E
#1670
1%
1E
#1680
0%
0E
#1690
1%
1E
#1700
0%
0E
#1710
1%
1E
#1720
0%
0E
#1730
1%
1E
#1740
0%
0E
#1750
1%
1E
#1760
0%
0E
#1770
1%
1E
#1780
0%
0E
#1790
1%
1E
#1800
0%
0E
#1810
1%
1E
#1820
0%
0E
#1830
1%
1E
#1840
0%
0E
#1850
1%
1E
#1860
0%
0E
#1870
1%
1E
#1880
0%
0E
#1890
1%
1E
#1900
0%
0E
#1910
1%
1E
#1920
0%
0E
#1930
1%
1E
#1940
0%
0E
#1950
1%
1E
#1960
0%
0E
#1970
1%
1E
#1980
0%
0E
#1990
1%
1E
#2000
0%
0E
#2010
1%
1E
#2020
0%
0E
#2030
1%
1E
#2040
0%
0E
#2050
1%
1E
#2060
0%
0E
#2070
1%
1E
#2080
0%
0E
#2090
1%
1E
#2100
0%
0E
#2110
1%
1E
#2120
0%
0E
#2130
1%
1E
#2140
0%
0E
#2150
1%
1E
#2160
0%
0E
#2170
1%
1E
#2180
0%
0E
#2190
1%
1E
#2200
0%
0E
#2210
1%
1E
#2220
0%
0E
#2230
1%
1E
#2240
0%
0E
#2250
1%
1E
#2260
0%
0E
#2270
1%
1E
#2280
0%
0E
#2290
1%
1E
#2300
0%
0E
#2310
1%
1E
#2320
0%
0E
#2330
1%
1E
#2340
0%
0E
#2350
1%
1E
#2360
0%
0E
#2370
1%
1E
#2380
0%
0E
#2390
1%
1E
#2400
0%
0E
#2410
1%
1E
#2420
0%
0E
#2430
1%
1E
#2440
0%
0E
#2450
1%
1E
#2460
0%
0E
#2470
1%
1E
#2480
0%
0E
#2490
1%
1E
#2500
0%
0E
#2510
1%
1E
#2520
0%
0E
#2530
1%
1E
#2540
0%
0E
#2550
1%
1E
#2560
0%
0E
#2570
1%
1E
#2580
0%
0E
#2590
1%
1E
#2600
0%
0E
#2610
1%
1E
#2620
0%
0E
#2630
1%
1E
#2640
0%
0E
#2650
1%
1E
#2660
0%
0E
#2670
1%
1E
#2680
0%
0E
#2690
1%
1E
#2700
0%
0E
#2710
1%
1E
#2720
0%
0E
#2730
1%
1E
#2740
0%
0E
#2750
1%
1E
#2760
0%
0E
#2770
1%
1E
#2780
0%
0E
#2790
1%
1E
#2800
0%
0E
#2810
1%
1E
#2820
0%
0E
#2830
1%
1E
#2840
0%
0E
#2850
1%
1E
#2860
0%
0E
#2870
1%
1E
#2880
0%
0E
#2890
1%
1E
#2900
0%
0E
#2910
1%
1E
#2920
0%
0E
#2930
1%
1E
#2940
0%
0E
#2950
1%
1E
#2960
0%
0E
#2970
1%
1E
#2980
0%
0E
#2990
1%
1E
#3000
0%
0E
#3010
1%
1E
#3020
0%
0E
#3030
1%
1E
#3040
0%
0E
#3050
1%
1E
#3060
0%
0E
#3070
1%
1E
#3080
0%
0E
#3090
1%
1E
#3100
0%
0E
#3110
1%
1E
#3120
0%
0E
#3130
1%
1E
#3140
0%
0E
#3150
1%
1E
#3160
0%
0E
#3170
1%
1E
#3180
0%
0E
#3190
1%
1E
#3200
0%
0E
#3210
1%
1E
#3220
0%
0E
#3230
1%
1E
#3240
0%
0E
#3250
1%
1E
#3260
0%
0E
#3270
1%
1E
#3280
0%
0E
#3290
1%
1E
#3300
0%
0E
#3310
1%
1E
#3320
0%
0E
#3330
1%
1E
#3340
0%
0E
#3350
1%
1E
#3360
0%
0E
#3370
1%
1E
#3380
0%
0E
#3390
1%
1E
#3400
0%
0E
#3410
1%
1E
#3420
0%
0E
#3430
1%
1E
#3440
0%
0E
#3450
1%
1E
#3460
0%
0E
#3470
1%
1E
#3480
0%
0E
#3490
1%
1E
#3500
0%
0E
#3510
1%
1E
#3520
0%
0E
#3530
1%
1E
#3540
0%
0E
#3550
1%
1E
#3560
0%
0E
#3570
1%
1E
#3580
0%
0E
#3590
1%
1E
#3600
0%
0E
#3610
1%
1E
#3620
0%
0E
#3630
1%
1E
#3640
0%
0E
#3650
1%
1E
#3660
0%
0E
#3670
1%
1E
#3680
0%
0E
#3690
1%
1E
#3700
0%
0E
#3710
1%
1E
#3720
0%
0E
#3730
1%
1E
#3740
0%
0E
#3750
1%
1E
#3760
0%
0E
#3770
1%
1E
#3780
0%
0E
#3790
1%
1E
#3800
0%
0E
#3810
1%
1E
#3820
0%
0E
#3830
1%
1E
#3840
0%
0E
#3850
1%
1E
#3860
0%
0E
#3870
1%
1E
#3880
0%
0E
#3890
1%
1E
#3900
0%
0E
#3910
1%
1E
#3920
0%
0E
#3930
1%
1E
#3940
0%
0E
#3950
1%
1E
#3960
0%
0E
#3970
1%
1E
#3980
0%
0E
#3990
1%
1E
#4000
0%
0E
#4010
1%
1E
#4020
0%
0E
#4030
1%
1E
#4040
0%
0E
#4050
1%
1E
#4060
0%
0E
#4070
1%
1E
#4080
0%
0E
#4090
1%
1E
#4100
0%
0E
#4110
1%
1E
#4120
0%
0E
#4130
1%
1E
#4140
0%
0E
#4150
1%
1E
#4160
0%
0E
#4170
1%
1E
#4180
0%
0E
#4190
1%
1E
#4200
0%
0E
#4210
1%
1E
#4220
0%
0E
#4230
1%
1E
#4240
0%
0E
#4250
1%
1E
#4260
0%
0E
#4270
1%
1E
#4280
0%
0E
#4290
1%
1E
#4300
0%
0E
#4310
1%
1E
#4320
0%
0E
#4330
1%
1E
#4340
0%
0E
#4350
1%
1E
#4360
0%
0E
#4370
1%
1E
#4380
0%
0E
#4390
1%
1E
#4400
0%
0E
#4410
1%
1E
#4420
0%
0E
#4430
1%
1E
#4440
0%
0E
#4450
1%
1E
#4460
0%
0E
#4470
1%
1E
#4480
0%
0E
#4490
1%
1E
#4500
0%
0E
#4510
1%
1E
#4520
0%
0E
#4530
1%
1E
#4540
0%
0E
#4550
1%
1E
#4560
0%
0E
#4570
1%
1E
#4580
0%
0E
#4590
1%
1E
#4600
0%
0E
#4610
1%
1E
#4620
0%
0E
#4630
1%
1E
#4640
0%
0E
#4650
1%
1E
#4660
0%
0E
#4670
1%
1E
#4680
0%
0E
#4690
1%
1E
#4700
0%
0E
#4710
1%
1E
#4720
0%
0E
#4730
1%
1E
#4740
0%
0E
#4750
1%
1E
#4760
0%
0E
#4770
1%
1E
#4780
0%
0E
#4790
1%
1E
#4800
0%
0E
#4810
1%
1E
#4820
0%
0E
#4830
1%
1E
#4840
0%
0E
#4850
1%
1E
#4860
0%
0E
#4870
1%
1E
#4880
0%
0E
#4890
1%
1E
#4900
0%
0E
#4910
1%
1E
#4920
0%
0E
#4930
1%
1E
#4940
0%
0E
#4950
1%
1E
#4960
0%
0E
#4970
1%
1E
#4980
0%
0E
#4990
1%
1E
#5000
0%
0E
#5010
1%
1E
#5020
0%
0E
#5030
1%
1E
#5040
0%
0E
#5050
1%
1E
#5060
0%
0E
#5070
1%
1E
#5080
0%
0E
#5090
1%
1E
#5100
0%
0E
#5110
1%
1E
#5120
0%
0E
#5130
1%
1E
#5140
0%
0E
#5150
1%
1E
#5160
0%
0E
#5170
1%
1E
#5180
0%
0E
#5190
1%
1E
#5200
0%
0E
#5210
1%
1E
#5220
0%
0E
#5230
1%
1E
#5240
0%
0E
#5250
1%
1E
#5260
0%
0E
#5270
1%
1E
#5280
0%
0E
#5290
1%
1E
#5300
0%
0E
#5310
1%
1E
#5320
0%
0E
#5330
1%
1E
#5340
0%
0E
#5350
1%
1E
#5360
0%
0E
#5370
1%
1E
#5380
0%
0E
#5390
1%
1E
#5400
0%
0E
#5410
1%
1E
#5420
0%
0E
#5430
1%
1E
#5440
0%
0E
#5450
1%
1E
#5460
0%
0E
#5470
1%
1E
#5480
0%
0E
#5490
1%
1E
#5500
0%
0E
#5510
1%
1E
#5520
0%
0E
#5530
1%
1E
#5540
0%
0E
#5550
1%
1E
#5560
0%
0E
#5570
1%
1E
#5580
0%
0E
#5590
1%
1E
#5600
0%
0E
#5610
1%
1E
#5620
0%
0E
#5630
1%
1E
#5640
0%
0E
#5650
1%
1E
#5660
0%
0E
#5670
1%
1E
#5680
0%
0E
#5690
1%
1E
#5700
0%
0E
#5710
1%
1E
#5720
0%
0E
#5730
1%
1E
#5740
0%
0E
#5750
1%
1E
#5760
0%
0E
#5770
1%
1E
#5780
0%
0E
#5790
1%
1E
#5800
0%
0E
#5810
1%
1E
#5820
0%
0E
#5830
1%
1E
#5840
0%
0E
#5850
1%
1E
#5860
0%
0E
#5870
1%
1E
#5880
0%
0E
#5890
1%
1E
#5900
0%
0E
#5910
1%
1E
#5920
0%
0E
#5930
1%
1E
#5940
0%
0E
#5950
1%
1E
#5960
0%
0E
#5970
1%
1E
#5980
0%
0E
#5990
1%
1E
#6000
0%
0E
#6010
1%
1E
#6020
0%
0E
#6030
1%
1E
#6040
0%
0E
#6050
1%
1E
#6060
0%
0E
#6070
1%
1E
#6080
0%
0E
#6090
1%
1E
#6100
0%
0E
#6110
1%
1E
#6120
0%
0E
#6130
1%
1E
#6140
0%
0E
#6150
1%
1E
#6160
0%
0E
#6170
1%
1E
#6180
0%
0E
#6190
1%
1E
#6200
0%
0E
#6210
1%
1E
#6220
0%
0E
#6230
1%
1E
#6240
0%
0E
#6250
1%
1E
#6260
0%
0E
#6270
1%
1E
#6280
0%
0E
#6290
1%
1E
#6300
0%
0E
#6310
1%
1E
#6320
0%
0E
#6330
1%
1E
#6340
0%
0E
#6350
1%
1E
#6360
0%
0E
#6370
1%
1E
#6380
0%
0E
#6390
1%
1E
#6400
0%
0E
#6410
1%
1E
#6420
0%
0E
#6430
1%
1E
#6440
0%
0E
#6450
1%
1E
#6460
0%
0E
#6470
1%
1E
#6480
0%
0E
#6490
1%
1E
#6500
0%
0E
#6510
1%
1E
#6520
0%
0E
#6530
1%
1E
#6540
0%
0E
#6550
1%
1E
#6560
0%
0E
#6570
1%
1E
#6580
0%
0E
#6590
1%
1E
#6600
0%
0E
#6610
1%
1E
#6620
0%
0E
#6630
1%
1E
#6640
0%
0E
#6650
1%
1E
#6660
0%
0E
#6670
1%
1E
#6680
0%
0E
#6690
1%
1E
#6700
0%
0E
#6710
1%
1E
#6720
0%
0E
#6730
1%
1E
#6740
0%
0E
#6750
1%
1E
#6760
0%
0E
#6770
1%
1E
#6780
0%
0E
#6790
1%
1E
#6800
0%
0E
#6810
1%
1E
#6820
0%
0E
#6830
1%
1E
#6840
0%
0E
#6850
1%
1E
#6860
0%
0E
#6870
1%
1E
#6880
0%
0E
#6890
1%
1E
#6900
0%
0E
#6910
1%
1E
#6920
0%
0E
#6930
1%
1E
#6940
0%
0E
#6950
1%
1E
#6960
0%
0E
#6970
1%
1E
#6980
0%
0E
#6990
1%
1E
#7000
0%
0E
#7010
1%
1E
#7020
0%
0E
#7030
1%
1E
#7040
0%
0E
#7050
1%
1E
#7060
0%
0E
#7070
1%
1E
#7080
0%
0E
#7090
1%
1E
#7100
0%
0E
#7110
1%
1E
#7120
0%
0E
#7130
1%
1E
#7140
0%
0E
#7150
1%
1E
#7160
0%
0E
#7170
1%
1E
#7180
0%
0E
#7190
1%
1E
#7200
0%
0E
#7210
1%
1E
#7220
0%
0E
#7230
1%
1E
#7240
0%
0E
#7250
1%
1E
#7260
0%
0E
#7270
1%
1E
#7280
0%
0E
#7290
1%
1E
#7300
0%
0E
#7310
1%
1E
#7320
0%
0E
#7330
1%
1E
#7340
0%
0E
#7350
1%
1E
#7360
0%
0E
#7370
1%
1E
#7380
0%
0E
#7390
1%
1E
#7400
0%
0E
#7410
1%
1E
#7420
0%
0E
#7430
1%
1E
#7440
0%
0E
#7450
1%
1E
#7460
0%
0E
#7470
1%
1E
#7480
0%
0E
#7490
1%
1E
#7500
0%
0E
#7510
1%
1E
#7520
0%
0E
#7530
1%
1E
#7540
0%
0E
#7550
1%
1E
#7560
0%
0E
#7570
1%
1E
#7580
0%
0E
#7590
1%
1E
#7600
0%
0E
#7610
1%
1E
#7620
0%
0E
#7630
1%
1E
#7640
0%
0E
#7650
1%
1E
#7660
0%
0E
#7670
1%
1E
#7680
0%
0E
#7690
1%
1E
#7700
0%
0E
#7710
1%
1E
#7720
0%
0E
#7730
1%
1E
#7740
0%
0E
#7750
1%
1E
#7760
0%
0E
#7770
1%
1E
#7780
0%
0E
#7790
1%
1E
#7800
0%
0E
#7810
1%
1E
#7820
0%
0E
#7830
1%
1E
#7840
0%
0E
#7850
1%
1E
#7860
0%
0E
#7870
1%
1E
#7880
0%
0E
#7890
1%
1E
#7900
0%
0E
#7910
1%
1E
#7920
0%
0E
#7930
1%
1E
#7940
0%
0E
#7950
1%
1E
#7960
0%
0E
#7970
1%
1E
#7980
0%
0E
#7990
1%
1E
#8000
0%
0E
#8010
1%
1E
#8020
0%
0E
#8030
1%
1E
#8040
0%
0E
#8050
1%
1E
#8060
0%
0E
#8070
1%
1E
#8080
0%
0E
#8090
1%
1E
#8100
0%
0E
#8110
1%
1E
#8120
0%
0E
#8130
1%
1E
#8140
0%
0E
#8150
1%
1E
#8160
0%
0E
#8170
1%
1E
#8180
0%
0E
#8190
1%
1E
#8200
0%
0E
#8210
1%
1E
#8220
0%
0E
#8230
1%
1E
#8240
0%
0E
#8250
1%
1E
#8260
0%
0E
#8270
1%
1E
#8280
0%
0E
#8290
1%
1E
#8300
0%
0E
#8310
1%
1E
#8320
0%
0E
#8330
1%
1E
#8340
0%
0E
#8350
1%
1E
#8360
0%
0E
#8370
1%
1E
#8380
0%
0E
#8390
1%
1E
#8400
0%
0E
#8410
1%
1E
#8420
0%
0E
#8430
1%
1E
#8440
0%
0E
#8450
1%
1E
#8460
0%
0E
#8470
1%
1E
#8480
0%
0E
#8490
1%
1E
#8500
0%
0E
#8510
1%
1E
#8520
0%
0E
#8530
1%
1E
#8540
0%
0E
#8550
1%
1E
#8560
0%
0E
#8570
1%
1E
#8580
0%
0E
#8590
1%
1E
#8600
0%
0E
#8610
1%
1E
#8620
0%
0E
#8630
1%
1E
#8640
0%
0E
#8650
1%
1E
#8660
0%
0E
#8670
1%
1E
#8680
0%
0E
#8690
1%
1E
#8700
0%
0E
#8710
1%
1E
#8720
0%
0E
#8730
1%
1E
#8740
0%
0E
#8750
1%
1E
#8760
0%
0E
#8770
1%
1E
#8780
0%
0E
#8790
1%
1E
#8800
0%
0E
#8810
1%
1E
#8820
0%
0E
#8830
1%
1E
#8840
0%
0E
#8850
1%
1E
#8860
0%
0E
#8870
1%
1E
#8880
0%
0E
#8890
1%
1E
#8900
0%
0E
#8910
1%
1E
#8920
0%
0E
#8930
1%
1E
#8940
0%
0E
#8950
1%
1E
#8960
0%
0E
#8970
1%
1E
#8980
0%
0E
#8990
1%
1E
#9000
0%
0E
#9010
1%
1E
#9020
0%
0E
#9030
1%
1E
#9040
0%
0E
#9050
1%
1E
#9060
0%
0E
#9070
1%
1E
#9080
0%
0E
#9090
1%
1E
#9100
0%
0E
#9110
1%
1E
#9120
0%
0E
#9130
1%
1E
#9140
0%
0E
#9150
1%
1E
#9160
0%
0E
#9170
1%
1E
#9180
0%
0E
#9190
1%
1E
#9200
0%
0E
#9210
1%
1E
#9220
0%
0E
#9230
1%
1E
#9240
0%
0E
#9250
1%
1E
#9260
0%
0E
#9270
1%
1E
#9280
0%
0E
#9290
1%
1E
#9300
0%
0E
#9310
1%
1E
#9320
0%
0E
#9330
1%
1E
#9340
0%
0E
#9350
1%
1E
#9360
0%
0E
#9370
1%
1E
#9380
0%
0E
#9390
1%
1E
#9400
0%
0E
#9410
1%
1E
#9420
0%
0E
#9430
1%
1E
#9440
0%
0E
#9450
1%
1E
#9460
0%
0E
#9470
1%
1E
#9480
0%
0E
#9490
1%
1E
#9500
0%
0E
#9510
1%
1E
#9520
0%
0E
#9530
1%
1E
#9540
0%
0E
#9550
1%
1E
#9560
0%
0E
#9570
1%
1E
#9580
0%
0E
#9590
1%
1E
#9600
0%
0E
#9610
1%
1E
#9620
0%
0E
#9630
1%
1E
#9640
0%
0E
#9650
1%
1E
#9660
0%
0E
#9670
1%
1E
#9680
0%
0E
#9690
1%
1E
#9700
0%
0E
#9710
1%
1E
#9720
0'
b0 7
0%
0G
0E
#9730
1%
1E
0K
#9740
0%
0E
#9750
1%
1E
0J
b1 Q
#9760
0%
0E
#9770
1%
1E
b1 P
#9780
0%
0E
#9790
1%
1E
b1 M
#9800
0%
0E
#9810
1%
1E
b10 M
#9820
0%
0E
#9830
1%
1E
b11 M
#9840
0%
0E
#9850
1%
1E
b100 M
#9860
0%
0E
#9870
1%
1E
b101 M
#9880
0%
0E
#9890
1%
1E
b110 M
#9900
0%
0E
#9910
1%
1E
b111 M
#9920
0%
0E
#9930
1%
1E
b1000 M
#9940
0%
0E
#9950
1%
1E
b1001 M
#9960
0%
0E
#9970
1%
1E
b1010 M
#9980
0%
0E
#9990
1%
1E
b1011 M
#10000
0%
0E
#10010
1%
1E
b1100 M
#10020
0%
0E
#10030
1%
1E
b1101 M
#10040
0%
0E
#10050
1%
1E
b1110 M
#10060
0%
0E
#10070
1%
1E
b1111 M
#10080
0%
0E
#10090
1%
1E
b10000 M
#10100
0%
0E
#10110
1%
1E
b10001 M
#10120
0%
0E
#10130
1%
1E
b10010 M
#10140
0%
0E
#10150
1%
1E
b10011 M
#10160
0%
0E
#10170
1%
1E
b10100 M
#10180
0%
0E
#10190
1%
1E
b10101 M
#10200
0%
0E
#10210
1%
1E
b10110 M
#10220
0%
0E
#10230
1%
1E
b10111 M
#10240
0%
0E
#10250
1%
1E
b11000 M
#10260
0%
0E
#10270
1%
1E
b11001 M
#10280
0%
0E
#10290
1%
1E
b11010 M
#10300
0%
0E
#10310
1%
1E
b11011 M
#10320
0%
0E
#10330
1%
1E
b11100 M
#10340
0%
0E
#10350
1%
1E
b11101 M
#10360
0%
0E
#10370
1%
1E
b11110 M
#10380
0%
0E
#10390
1%
1E
b11111 M
#10400
0%
0E
#10410
1%
1E
b100000 M
#10420
0%
0E
#10430
1%
1E
b100001 M
#10440
0%
0E
#10450
1%
1E
b100010 M
#10460
0%
0E
#10470
1%
1E
b100011 M
#10480
0%
0E
#10490
1%
1E
b100100 M
#10500
0%
0E
#10510
1%
1E
b100101 M
#10520
0%
0E
#10530
1%
1E
b100110 M
#10540
0%
0E
#10550
1%
1E
b100111 M
#10560
0%
0E
#10570
1%
1E
b101000 M
#10580
0%
0E
#10590
1%
1E
b101001 M
#10600
0%
0E
#10610
1%
1E
b101010 M
#10620
0%
0E
#10630
1%
1E
b101011 M
#10640
0%
0E
#10650
1%
1E
b101100 M
#10660
0%
0E
#10670
1%
1E
b101101 M
#10680
0%
0E
#10690
1%
1E
b101110 M
#10700
0%
0E
#10710
1%
1E
b101111 M
#10720
0%
0E
#10730
1%
1E
b110000 M
#10740
0%
0E
#10750
1%
1E
b110001 M
#10760
0%
0E
#10770
1%
1E
b110010 M
#10780
0%
0E
#10790
1%
1E
b110011 M
#10800
0%
0E
#10810
1%
1E
b110100 M
#10820
0%
0E
#10830
1%
1E
b110101 M
#10840
0%
0E
#10850
1%
1E
b110110 M
#10860
0%
0E
#10870
1%
1E
b110111 M
#10880
0%
0E
#10890
1%
1E
b111000 M
#10900
0%
0E
#10910
1%
1E
b111001 M
#10920
0%
0E
#10930
1%
1E
b111010 M
#10940
0%
0E
#10950
1%
1E
b111011 M
#10960
0%
0E
#10970
1%
1E
b111100 M
#10980
0%
0E
#10990
1%
1E
b111101 M
#11000
0%
0E
#11010
1%
1E
b111110 M
#11020
0%
0E
#11030
1%
1E
b111111 M
#11040
0%
0E
#11050
1%
1E
b1000000 M
#11060
0%
0E
#11070
1%
1E
b1000001 M
#11080
0%
0E
#11090
1%
1E
b1000010 M
#11100
0%
0E
#11110
1%
1E
b1000011 M
#11120
0%
0E
#11130
1%
1E
b1000100 M
#11140
0%
0E
#11150
1%
1E
b1000101 M
#11160
0%
0E
#11170
1%
1E
b1000110 M
#11180
0%
0E
#11190
1%
1E
b1000111 M
#11200
0%
0E
#11210
1%
1E
b1001000 M
#11220
0%
0E
#11230
1%
1E
b1001001 M
#11240
0%
0E
#11250
1%
1E
b1001010 M
#11260
0%
0E
#11270
1%
1E
b1001011 M
#11280
0%
0E
#11290
1%
1E
b1001100 M
#11300
0%
0E
#11310
1%
1E
b1001101 M
#11320
0%
0E
#11330
1%
1E
b1001110 M
#11340
0%
0E
#11350
1%
1E
b1001111 M
#11360
0%
0E
#11370
1%
1E
b1010000 M
#11380
0%
0E
#11390
1%
1E
b1010001 M
#11400
0%
0E
#11410
1%
1E
b1010010 M
#11420
0%
0E
#11430
1%
1E
b1010011 M
#11440
0%
0E
#11450
1%
1E
b1010100 M
#11460
0%
0E
#11470
1%
1E
b1010101 M
#11480
0%
0E
#11490
1%
1E
b1010110 M
#11500
0%
0E
#11510
1%
1E
b1010111 M
#11520
0%
0E
#11530
1%
1E
b1011000 M
#11540
0%
0E
#11550
1%
1E
b1011001 M
#11560
0%
0E
#11570
1%
1E
b1011010 M
#11580
0%
0E
#11590
1%
1E
b1011011 M
#11600
0%
0E
#11610
1%
1E
b1011100 M
#11620
0%
0E
#11630
1%
1E
b1011101 M
#11640
0%
0E
#11650
1%
1E
b1011110 M
#11660
0%
0E
#11670
1%
1E
b1011111 M
#11680
0%
0E
#11690
1%
1E
b1100000 M
#11700
0%
0E
#11710
1%
1E
b1100001 M
#11720
0%
0E
#11730
1%
1E
b1100010 M
#11740
0%
0E
#11750
1%
1E
b1100011 M
#11760
0%
0E
#11770
1%
1E
b1100100 M
#11780
0%
0E
#11790
1%
1E
b1100101 M
#11800
0%
0E
#11810
1%
1E
b1100110 M
#11820
0%
0E
#11830
1%
1E
b1100111 M
#11840
0%
0E
#11850
1%
1E
b1101000 M
#11860
0%
0E
#11870
1%
1E
b1101001 M
#11880
0%
0E
#11890
1%
1E
b1101010 M
#11900
0%
0E
#11910
1%
1E
b1101011 M
#11920
0%
0E
#11930
1%
1E
b1101100 M
#11940
0%
0E
#11950
1%
1E
b1101101 M
#11960
0%
0E
#11970
1%
1E
b1101110 M
#11980
0%
0E
#11990
1%
1E
b1101111 M
#12000
0%
0E
#12010
1%
1E
b1110000 M
#12020
0%
0E
#12030
1%
1E
b1110001 M
#12040
0%
0E
#12050
1%
1E
b1110010 M
#12060
0%
0E
#12070
1%
1E
b1110011 M
#12080
0%
0E
#12090
1%
1E
b1110100 M
#12100
0%
0E
#12110
1%
1E
b1110101 M
#12120
0%
0E
#12130
1%
1E
b1110110 M
#12140
0%
0E
#12150
1%
1E
b1110111 M
#12160
0%
0E
#12170
1%
1E
b1111000 M
#12180
0%
0E
#12190
1%
1E
b1111001 M
#12200
0%
0E
#12210
1%
1E
b1111010 M
#12220
0%
0E
#12230
1%
1E
b1111011 M
#12240
0%
0E
#12250
1%
1E
b1111100 M
#12260
0%
0E
#12270
1%
1E
b1111101 M
#12280
0%
0E
#12290
1%
1E
b1111110 M
#12300
0%
0E
#12310
1%
1E
b1111111 M
#12320
0%
0E
#12330
1%
1E
b10000000 M
#12340
0%
0E
#12350
1%
1E
b10000001 M
#12360
0%
0E
#12370
1%
1E
b10000010 M
#12380
0%
0E
#12390
1%
1E
b10000011 M
#12400
0%
0E
#12410
1%
1E
b10000100 M
#12420
0%
0E
#12430
1%
1E
b10000101 M
#12440
0%
0E
#12450
1%
1E
b10000110 M
#12460
0%
0E
#12470
1%
1E
b10000111 M
#12480
0%
0E
#12490
1%
1E
b10001000 M
#12500
0%
0E
#12510
1%
1E
b10001001 M
#12520
0%
0E
#12530
1%
1E
b10001010 M
#12540
0%
0E
#12550
1%
1E
b10001011 M
#12560
0%
0E
#12570
1%
1E
b10001100 M
